.....................
----------------------------------------------------------------------
Ran 21 tests in 0.062s

OK
Name             Stmts   Miss Branch BrPart  Cover   Missing
------------------------------------------------------------
Collatz.py          55      0     22      1    99%   397->396
TestCollatz.py      90      0      2      0   100%
------------------------------------------------------------
TOTAL              145      0     24      1    99%
