1 10 20
100 200 125
201 210 89
900 1000 174
4124 14156 276
2511 3333 217
616 1455 182
24 222 125
333 444 134
555 1566 182
2255 9948 262
5125 9674 262
10495 14500 276
3768 8708 262
6244 11762 268
5878 10227 262
6403 12228 268
33 5725 238
4421 5132 210
11186 11615 237
111 11006 268
276 14547 276
3376 3609 194
4989 11505 268
11953 14510 276
8507 9152 247
1227 12640 268
5277 10317 262
11263 11760 237
12223 12487 263
98 14930 276
2313 14260 276
22 4327 238
9185 9659 260
1782 12421 268
1132 1275 182
886 10924 262
773 14568 276
10096 10625 255
558 4042 238
2953 4259 238
1554 14680 276
9909 13482 276
6441 14511 276
4066 10629 262
9381 10484 255
3853 13613 276
2475 14833 276
6459 10694 260
1640 8838 262
5969 8805 262
3774 10004 262
7837 11623 268
546 9681 262
7999 9209 247
353 1098 179
8365 13585 276
6576 10781 260
11046 13917 276
8513 14972 276
7313 12652 268
1955 14628 276
5392 7565 262
217 10110 262
3561 3973 238
1797 3119 217
1474 4935 238
3595 12630 268
6776 14360 276
3660 13959 276
1685 14953 276
810 13584 276
2374 14961 276
6929 10958 260
8005 12064 268
5194 7034 262
7150 11212 268
1312 2626 209
2080 9238 262
1677 2747 209
9648 10210 242
12782 13996 276
10065 12724 268
3839 10529 262
1229 13799 276
5200 8267 262
8879 13337 276
5533 9394 262
3820 8005 262
8822 9962 260
2422 11247 268
3743 10274 262
5854 9137 262
3755 12888 268
7997 10583 260
1983 2520 209
8805 10598 260
5264 7935 262
9617 10740 255
2345 11567 268
11260 12091 250
244 7786 262
10179 14120 276
2201 3224 217
2092 9351 262
6018 10268 262
11507 14159 276
2281 11663 268
2451 10739 262
12282 12441 263
466 2679 209
816 13211 268
9839 10944 255
