.............
----------------------------------------------------------------------
Ran 13 tests in 0.248s

OK
Name             Stmts   Miss Branch BrPart  Cover   Missing
------------------------------------------------------------
Collatz.py          52      0     20      0   100%
TestCollatz.py      60      0      2      0   100%
------------------------------------------------------------
TOTAL              112      0     22      0   100%
