1 10 20
100 200 125
201 210 89
900 1000 174
123 130 122
160 200 125
201 220 115
245 278 123
300 327 144
501 567 137
601 619 132
456 459 129
109 278 128
345 400 126
600 671 145
569 603 119
1001 1030 156
1034 1045 125
2034 2056 157
2101 2111 170
2112 2200 170
789 800 122
89 102 119
100 123 114
200 233 128
450 700 145
800 900 179
800 878 179
5000 5100 179
5200 5250 179
5300 5450 192
5500 5600 236
5700 5800 205
5800 5850 218
5900 6000 187
6010 6012 143
6050 6060 187
6100 6150 187
6200 6250 187
6300 6350 200
6400 6450 169
6500 6600 244
6650 6700 182
6750 6800 182
6850 6900 182
6950 7000 182
7050 7100 151
7150 7200 195
7250 7300 177
7350 7400 208
7450 7500 177
7550 7600 177
7650 7700 177
7750 7800 221
7850 7900 190
7950 8000 252
8050 8100 190
8150 8200 177
8250 8300 190
8350 8400 234
8450 8500 203
8550 8600 172
8650 8700 203
8750 8800 216
8850 8900 185
8950 9000 247
9050 9100 185
9150 9200 198
9250 9300 260
9350 9400 198
9450 9500 198
9550 9600 198
9650 9700 185
9750 9800 198
9850 9900 242
150 200 125
250 300 123
350 400 126
450 500 142
550 600 137
650 700 145
750 800 153
850 900 179
950 1000 143
1050 1075 169
1100 1175 182
2750 3000 217
3238 3256 168
4010 4012 189
4014 4100 158
4150 4267 202
534 567 137
789 890 179
910 920 130
930 940 174
950 960 130
970 980 143
999 1056 169
789 901 179
801 845 135
-3 -3 -1
