..................
----------------------------------------------------------------------
Ran 18 tests in 1.877s

OK
Name             Stmts   Miss Branch BrPart  Cover   Missing
------------------------------------------------------------
Collatz.py          44      0     20      0   100%
TestCollatz.py      75      0      2      0   100%
------------------------------------------------------------
TOTAL              119      0     22      0   100%