1 10 20
100 200 125
201 210 89
900 1000 174
200 800 171
1 1000 179
300 400 144
23583 39912 324
38482 595932 470
1116 56662 340
39 253451 443
3246 23756 282
3 10 20
1 7 17
10 30 112
20 80 116
17 191 125
23 1756 182
1234 5678 238
102 43572 324
1 100000 351
1 1 1
1 999 179
1 9999 262
1 500 144
500 9999 262
28 146 122
123 567 144
456 654 145
1 456 144
30 10000 262
514 2000 182
340 8000 262
383419 831742 509
347259 496552 449
123758 400882 443
34381 994967 525
535919 585689 452
14848 505119 449
411915 530999 470
355867 674078 509
62735 657754 509
121212 898989 525
51139 63279 340
63997 107913 354
55490 79328 351
95493 97686 297
66505 108546 354
25240 105857 351
82183 92104 333
55439 89692 351
25606 66158 340
960722 960722 70
345865 345865 136
856185 856185 282
357833 357833 167
541614 620082 452
430220 969365 525
81038 882059 525
68968 106392 354
13579 24680 282
12345 54321 340
10 100 119
10 10 7
100 100 26
514514 600000 452
3000 7000 262
42 8900 262
69 74 116
15234 52341 324
543079 978152 525
123756 789521 509
25634 56796 340
23575 97566 351
333333 999999 525
6399 10791 260
5549 7932 262
9549 9768 198
6650 10854 260
38341 83174 351
34725 49655 324
12375 40088 324
3438 99496 351
53591 58568 322
14848 50511 324
2358 3991 238
3848 59593 340
1116 5666 238
39 25345 282
324 2375 183
1002 1004 112
114 514 144
110 116 114
74 6974 262
3400 5800 238
151515 515151 470
9876 12345 268
6432 69851 340
678 6431 262
6789 6897 182
